hdl/tb_psk8_modem.vcd
$date
	Wed Jul  8 01:55:01 2026
$end
$version
	Icarus Verilog
$end
$timescale
	1ps
$end
$scope module tb_psk8_modem $end
$var wire 2 ! tx_symbol_valid [1:0] $end
$var wire 6 " tx_bits [5:0] $end
$var wire 2 # rx_bits_valid [1:0] $end
$var wire 6 $ rx_bits [5:0] $end
$var wire 128 % matched_q [127:0] $end
$var wire 128 & matched_i [127:0] $end
$var wire 1 ' dac_valid $end
$var wire 128 ( dac_q [127:0] $end
$var wire 128 ) dac_i [127:0] $end
$var wire 128 * corrected_q [127:0] $end
$var wire 128 + corrected_i [127:0] $end
$var wire 1 , channel_valid $end
$var wire 128 - adc_q [127:0] $end
$var wire 128 . adc_i [127:0] $end
$var parameter 16 / CFO_WORD $end
$var parameter 16 0 RX_CORR_WORD $end
$var parameter 32 1 TARGET_SYMBOLS $end
$var reg 1 2 block_valid $end
$var reg 1 3 clk $end
$var reg 31 4 prbs_seed [30:0] $end
$var reg 1 5 rst $end
$var reg 1 6 rx_phase_clear $end
$var reg 1 7 seed_load $end
$var integer 32 8 checked [31:0] $end
$var integer 32 9 cycle_count [31:0] $end
$var integer 32 : errors [31:0] $end
$var integer 32 ; rd_ptr [31:0] $end
$var integer 32 < wr_ptr [31:0] $end
$scope module channel_cfo $end
$var wire 1 3 clk $end
$var wire 1 = phase_clear $end
$var wire 16 > phase_inc [15:0] $end
$var wire 1 5 rst $end
$var wire 128 ? q_in [127:0] $end
$var wire 19 @ phase_advance [18:0] $end
$var wire 1 ' in_valid $end
$var wire 128 A i_in [127:0] $end
$var parameter 32 B LANES $end
$var reg 16 C cos_val [15:0] $end
$var reg 32 D i_cos [31:0] $end
$var reg 33 E i_mix [32:0] $end
$var reg 128 F i_out [127:0] $end
$var reg 32 G i_sin [31:0] $end
$var reg 16 H lane_phase [15:0] $end
$var reg 32 I lane_phase_full [31:0] $end
$var reg 1 , out_valid $end
$var reg 16 J phase_acc [15:0] $end
$var reg 32 K q_cos [31:0] $end
$var reg 33 L q_mix [32:0] $end
$var reg 128 M q_out [127:0] $end
$var reg 32 N q_sin [31:0] $end
$var reg 16 O sample_i [15:0] $end
$var reg 16 P sample_q [15:0] $end
$var reg 16 Q sin_val [15:0] $end
$var integer 32 R lane [31:0] $end
$var integer 32 S n [31:0] $end
$scope function cos_lut $end
$var reg 5 T idx [4:0] $end
$upscope $end
$scope function sat_q15 $end
$var reg 33 U acc [32:0] $end
$var reg 33 V rounded [32:0] $end
$var reg 18 W scaled [17:0] $end
$upscope $end
$scope function sin_lut $end
$var reg 5 X idx [4:0] $end
$upscope $end
$upscope $end
$scope module dut $end
$var wire 128 Y adc_i [127:0] $end
$var wire 128 Z adc_q [127:0] $end
$var wire 1 , adc_valid $end
$var wire 1 2 block_valid $end
$var wire 1 3 clk $end
$var wire 31 [ prbs_seed [30:0] $end
$var wire 1 5 rst $end
$var wire 1 6 rx_phase_clear $end
$var wire 16 \ rx_phase_inc [15:0] $end
$var wire 1 7 seed_load $end
$var wire 2 ] tx_symbol_valid [1:0] $end
$var wire 6 ^ tx_bits [5:0] $end
$var wire 2 _ rx_bits_valid [1:0] $end
$var wire 6 ` rx_bits [5:0] $end
$var wire 128 a matched_q [127:0] $end
$var wire 128 b matched_i [127:0] $end
$var wire 1 ' dac_valid $end
$var wire 128 c dac_q [127:0] $end
$var wire 128 d dac_i [127:0] $end
$var wire 128 e corrected_q [127:0] $end
$var wire 128 f corrected_i [127:0] $end
$var parameter 32 g RX_STARTUP_BLOCKS $end
$var parameter 2 h RX_SYMBOL_SAMPLE_PHASE $end
$scope module rx $end
$var wire 128 i adc_i [127:0] $end
$var wire 128 j adc_q [127:0] $end
$var wire 1 , adc_valid $end
$var wire 1 3 clk $end
$var wire 1 5 rst $end
$var wire 1 6 rx_phase_clear $end
$var wire 16 k rx_phase_inc [15:0] $end
$var wire 16 l symbol1_q [15:0] $end
$var wire 16 m symbol1_i [15:0] $end
$var wire 16 n symbol0_q [15:0] $end
$var wire 16 o symbol0_i [15:0] $end
$var wire 1 p mf_valid $end
$var wire 128 q matched_q [127:0] $end
$var wire 128 r matched_i [127:0] $end
$var wire 3 s demap_bits1 [2:0] $end
$var wire 3 t demap_bits0 [2:0] $end
$var wire 128 u corrected_q [127:0] $end
$var wire 128 v corrected_i [127:0] $end
$var wire 1 w corr_valid $end
$var parameter 32 x STARTUP_BLOCKS $end
$var parameter 2 y SYMBOL_SAMPLE_PHASE $end
$var reg 32 z matched_block_count [31:0] $end
$var reg 6 { rx_bits [5:0] $end
$var reg 2 | rx_bits_valid [1:0] $end
$scope module demapper_symbol0 $end
$var wire 16 } i_in [15:0] $end
$var wire 16 ~ q_in [15:0] $end
$var parameter 16 !" TAN_22P5_Q15 $end
$var reg 17 "" abs_i [16:0] $end
$var reg 17 #" abs_q [16:0] $end
$var reg 3 $" bits_out [2:0] $end
$var reg 1 %" near_i_axis $end
$var reg 1 &" near_q_axis $end
$upscope $end
$scope module demapper_symbol1 $end
$var wire 16 '" i_in [15:0] $end
$var wire 16 (" q_in [15:0] $end
$var parameter 16 )" TAN_22P5_Q15 $end
$var reg 17 *" abs_i [16:0] $end
$var reg 17 +" abs_q [16:0] $end
$var reg 3 ," bits_out [2:0] $end
$var reg 1 -" near_i_axis $end
$var reg 1 ." near_q_axis $end
$upscope $end
$scope module freq_corrector $end
$var wire 1 3 clk $end
$var wire 128 /" i_in [127:0] $end
$var wire 1 , in_valid $end
$var wire 1 6 phase_clear $end
$var wire 16 0" phase_inc [15:0] $end
$var wire 128 1" q_in [127:0] $end
$var wire 1 5 rst $end
$var wire 19 2" phase_advance [18:0] $end
$var parameter 32 3" LANES $end
$var reg 16 4" cos_val [15:0] $end
$var reg 32 5" i_cos [31:0] $end
$var reg 33 6" i_mix [32:0] $end
$var reg 128 7" i_out [127:0] $end
$var reg 32 8" i_sin [31:0] $end
$var reg 16 9" lane_phase [15:0] $end
$var reg 32 :" lane_phase_full [31:0] $end
$var reg 1 w out_valid $end
$var reg 16 ;" phase_acc [15:0] $end
$var reg 32 <" q_cos [31:0] $end
$var reg 33 =" q_mix [32:0] $end
$var reg 128 >" q_out [127:0] $end
$var reg 32 ?" q_sin [31:0] $end
$var reg 16 @" sample_i [15:0] $end
$var reg 16 A" sample_q [15:0] $end
$var reg 16 B" sin_val [15:0] $end
$var integer 32 C" lane [31:0] $end
$var integer 32 D" n [31:0] $end
$scope function cos_lut $end
$var reg 5 E" idx [4:0] $end
$upscope $end
$scope function sat_q15 $end
$var reg 33 F" acc [32:0] $end
$var reg 33 G" rounded [32:0] $end
$var reg 18 H" scaled [17:0] $end
$upscope $end
$scope function sin_lut $end
$var reg 5 I" idx [4:0] $end
$upscope $end
$upscope $end
$scope module rx_filter $end
$var wire 1 3 clk $end
$var wire 128 J" i_in [127:0] $end
$var wire 1 w in_valid $end
$var wire 128 K" q_in [127:0] $end
$var wire 1 5 rst $end
$var parameter 32 L" LANES $end
$var parameter 32 M" TAPS $end
$var reg 48 N" acc_i [47:0] $end
$var reg 48 O" acc_q [47:0] $end
$var reg 128 P" i_out [127:0] $end
$var reg 1 p out_valid $end
$var reg 128 Q" q_out [127:0] $end
$var reg 16 R" sample_i [15:0] $end
$var reg 16 S" sample_q [15:0] $end
$var integer 32 T" lane [31:0] $end
$var integer 32 U" n [31:0] $end
$var integer 32 V" tap [31:0] $end
$scope function sat_q15 $end
$var reg 48 W" acc [47:0] $end
$var reg 48 X" rounded [47:0] $end
$var reg 33 Y" scaled [32:0] $end
$upscope $end
$scope function srrc_coeff $end
$var integer 32 Z" coeff_index [31:0] $end
$upscope $end
$upscope $end
$upscope $end
$scope module tx $end
$var wire 1 [" active_block $end
$var wire 1 2 block_valid $end
$var wire 1 3 clk $end
$var wire 31 \" prbs_seed [30:0] $end
$var wire 1 5 rst $end
$var wire 1 7 seed_load $end
$var wire 2 ]" tx_symbol_valid [1:0] $end
$var wire 6 ^" tx_bits [5:0] $end
$var wire 16 _" mapped_q1 [15:0] $end
$var wire 16 `" mapped_q0 [15:0] $end
$var wire 16 a" mapped_i1 [15:0] $end
$var wire 16 b" mapped_i0 [15:0] $end
$var wire 31 c" lfsr_after_bits1 [30:0] $end
$var wire 31 d" lfsr_after_bits0 [30:0] $end
$var wire 128 e" fir_q_in [127:0] $end
$var wire 128 f" fir_i_in [127:0] $end
$var wire 1 ' dac_valid $end
$var wire 128 g" dac_q [127:0] $end
$var wire 128 h" dac_i [127:0] $end
$var wire 3 i" bits1 [2:0] $end
$var wire 3 j" bits0 [2:0] $end
$var reg 31 k" lfsr [30:0] $end
$scope function prbs31_bits3 $end
$var reg 1 l" feedback $end
$var reg 3 m" out_bits [2:0] $end
$var reg 31 n" state_in [30:0] $end
$var reg 31 o" tmp [30:0] $end
$var integer 32 p" k [31:0] $end
$upscope $end
$scope function prbs31_next3 $end
$var reg 1 q" feedback $end
$var reg 31 r" state_in [30:0] $end
$var reg 31 s" tmp [30:0] $end
$var integer 32 t" k [31:0] $end
$upscope $end
$scope module mapper_symbol0 $end
$var wire 3 u" bits [2:0] $end
$var reg 16 v" i_out [15:0] $end
$var reg 16 w" q_out [15:0] $end
$upscope $end
$scope module mapper_symbol1 $end
$var wire 3 x" bits [2:0] $end
$var reg 16 y" i_out [15:0] $end
$var reg 16 z" q_out [15:0] $end
$upscope $end
$scope module tx_filter $end
$var wire 1 3 clk $end
$var wire 128 {" i_in [127:0] $end
$var wire 1 2 in_valid $end
$var wire 128 |" q_in [127:0] $end
$var wire 1 5 rst $end
$var parameter 32 }" LANES $end
$var parameter 32 ~" TAPS $end
$var reg 48 !# acc_i [47:0] $end
$var reg 48 "# acc_q [47:0] $end
$var reg 128 ## i_out [127:0] $end
$var reg 1 ' out_valid $end
$var reg 128 $# q_out [127:0] $end
$var reg 16 %# sample_i [15:0] $end
$var reg 16 &# sample_q [15:0] $end
$var integer 32 '# lane [31:0] $end
$var integer 32 (# n [31:0] $end
$var integer 32 )# tap [31:0] $end
$scope function sat_q15 $end
$var reg 48 *# acc [47:0] $end
$var reg 48 +# rounded [47:0] $end
$var reg 33 ,# scaled [32:0] $end
$upscope $end
$scope function srrc_coeff $end
$var integer 32 -# coeff_index [31:0] $end
$upscope $end
$upscope $end
$upscope $end
$upscope $end
$scope task check_symbol $end
$var reg 3 .# got_bits [2:0] $end
$var reg 16 /# sym_i [15:0] $end
$var reg 16 0# sym_q [15:0] $end
$var integer 32 1# fifo_index [31:0] $end
$var integer 32 2# symbol_index [31:0] $end
$upscope $end
$upscope $end
$enddefinitions $end
$comment Show the parameter values. $end
$dumpall
b101001 ~"
b1000 }"
b101001 M"
b1000 L"
b1000 3"
b11010100000101 )"
b11010100000101 !"
b0 y
b101 x
b0 h
b101 g
b1000 B
b10000000000 1
b1111111101011100 0
b10100100 /
$end
#0
$dumpvars
bx 2#
bx 1#
bx 0#
bx /#
bx .#
b101000 -#
bx ,#
bx +#
bx *#
b101001 )#
bx (#
b1000 '#
bx &#
bx %#
bx $#
bx ##
bx "#
bx !#
b0xxxxxxxxxxxxxxxx000000000000000000000000000000000000000000000000xxxxxxxxxxxxxxxx |"
b0xxxxxxxxxxxxxxxx000000000000000000000000000000000000000000000000xxxxxxxxxxxxxxxx {"
bx z"
bx y"
bx x"
bx w"
bx v"
bx u"
b11 t"
bx s"
bx r"
xq"
b11 p"
bx o"
bx n"
bx m"
xl"
bx k"
bx j"
bx i"
bx h"
bx g"
b0xxxxxxxxxxxxxxxx000000000000000000000000000000000000000000000000xxxxxxxxxxxxxxxx f"
b0xxxxxxxxxxxxxxxx000000000000000000000000000000000000000000000000xxxxxxxxxxxxxxxx e"
bx d"
bx c"
bx b"
bx a"
bx `"
bx _"
bx ^"
b11 ]"
b1111111111111111111111111111111 \"
1["
bx Z"
bx Y"
bx X"
bx W"
bx V"
bx U"
bx T"
bx S"
bx R"
bx Q"
bx P"
bx O"
bx N"
bx K"
bx J"
bx I"
bx H"
bx G"
bx F"
bx E"
bx D"
b1000 C"
b0 B"
bx A"
bx @"
bx ?"
bx >"
bx ="
bx <"
bx ;"
bx :"
bx 9"
bx 8"
bx 7"
bx 6"
bx 5"
b0 4"
b1111111101011100000 2"
bx 1"
b1111111101011100 0"
bx /"
x."
x-"
bx ,"
bx +"
bx *"
bx ("
bx '"
x&"
x%"
bx $"
bx #"
bx ""
bx ~
bx }
bx |
bx {
bx z
xw
bx v
bx u
bx t
bx s
bx r
bx q
xp
bx o
bx n
bx m
bx l
b1111111101011100 k
bx j
bx i
bx f
bx e
bx d
bx c
bx b
bx a
bx `
bx _
bx ^
b11 ]
b1111111101011100 \
b1111111111111111111111111111111 [
bx Z
bx Y
bx X
bx W
bx V
bx U
bx T
bx S
b1000 R
b0 Q
bx P
bx O
bx N
bx M
bx L
bx K
bx J
bx I
bx H
bx G
bx F
bx E
bx D
b0 C
bx A
b10100100000 @
bx ?
b10100100 >
0=
b0 <
b0 ;
b0 :
b0 9
b0 8
07
06
15
b1111111111111111111111111111111 4
03
12
bx .
bx -
x,
bx +
bx *
bx )
bx (
x'
bx &
bx %
bx $
bx #
bx "
b11 !
$end
#1000
b11100101 ,#
b11100101100110010001000 +#
b11100101000110010001000 *#
b10100101011111100000000000000000000000000000000000000000000000001010010101111110 e"
b10100101011111100000000000000000000000000000000000000000000000001010010101111110 |"
b1011010100000100000000000000000000000000000000000000000000000000101101010000010 f"
b1011010100000100000000000000000000000000000000000000000000000000101101010000010 {"
b1010010101111110 _"
b1010010101111110 z"
b101101010000010 a"
b101101010000010 y"
b1010010101111110 `"
b1010010101111110 w"
b101101010000010 b"
b101101010000010 v"
b111 i"
b111 x"
b1111111111111111111111111000000 c"
b0 s
b0 ,"
1."
1-"
b0 +"
b0 *"
b0 t
b0 $"
1&"
1%"
b0 #"
b0 ""
b0 &#
b0 %#
b101000 -#
b101001 )#
b11100101000110010001000 "#
b111111111111111111111111100011010111001101111000 !#
b1000 '#
b111111 "
b111111 ^
b111111 ^"
b111 j"
b111 u"
0l"
b111 m"
b11 p"
b1111111111111111111111111000000 o"
b1111111111111111111111111111000 n"
b1111111111111111111111111111000 d"
0q"
b11 t"
b1111111111111111111111111000000 s"
b1111111111111111111111111111000 r"
b0 l
b0 ("
b0 n
b0 ~
b0 m
b0 '"
b0 o
b0 }
b0 Y"
b100000000000000 X"
b0 W"
b101000 Z"
b0 S"
b0 R"
b101001 V"
b0 O"
b0 N"
b1000 T"
b1110011100000111 B"
b0 H"
b100000000000000 G"
b0 F"
b0 ="
b0 6"
b0 <"
b0 8"
b0 ?"
b0 5"
b0 A"
b0 @"
b11111 I"
b111110110001001 4"
b11111 E"
b1111101110000100 9"
b11111111111111111111101110000100 :"
b1000 C"
b0 W
b100000000000000 V
b0 U
b0 L
b0 E
b0 K
b0 G
b0 N
b0 D
b0 P
b0 O
b0 X
b111111111111111 C
b0 T
b10001111100 H
b10001111100 I
b1000 R
b0 (
b0 ?
b0 c
b0 g"
b0 $#
b0 )
b0 A
b0 d
b0 h"
b0 ##
0'
b1111111111111111111111111111111 k"
b0 *
b0 e
b0 u
b0 >"
b0 K"
b0 +
b0 f
b0 v
b0 7"
b0 J"
0w
b0 ;"
b0 %
b0 a
b0 q
b0 Q"
b0 &
b0 b
b0 r
b0 P"
0p
b0 #
b0 _
b0 |
b0 $
b0 `
b0 {
b0 z
b0 -
b0 M
b0 Z
b0 j
b0 1"
b0 .
b0 F
b0 Y
b0 i
b0 /"
0,
b0 J
b101001 (#
b101001 U"
13
#2000
03
#3000
b101001 U"
b101001 (#
13
#4000
03
#5000
b101001 (#
b101001 U"
13
#6000
03
#7000
b101001 U"
b101001 (#
13
#8000
03
#9000
b101001 (#
b101001 U"
13
#10000
03
#11000
b101001 U"
b101001 (#
13
#12000
03
#13000
b101001 (#
b101001 U"
13
#14000
03
#15000
05
b101001 U"
b101001 (#
13
#16000
03
#17000
b1111111111111111111000000000000 c"
b11001111001 ,#
b11001111001111011001010000 +#
b11001111001011011001010000 *#
b101000 -#
b0 &#
b0 %#
b101001 )#
b11001111001011011001010000 "#
b111111111111111111111100110000110100100110110000 !#
b1000 '#
b11100101 W
b11100101011111100011011 V
b11100100111111100011011 U
b11100100111111100011011 L
b111111111100011011000000011100101 E
b11100100111111100011011 K
b11111111100011011000000011100101 D
b11100101 P
b1111111100011011 O
b10001111100 H
b10001111100 I
b1000 R
b1111111111111111111000000000000 o"
b11 p"
b1111111111111111111111000000000 n"
b1111111111111111111111000000000 d"
b1111111111111111111000000000000 s"
b11 t"
b1111111111111111111111000000000 r"
1'
b111001010000000000011000111111111000000111111111100100100000000001110111000000001000011100000000000111001111111110101001 (
b111001010000000000011000111111111000000111111111100100100000000001110111000000001000011100000000000111001111111110101001 ?
b111001010000000000011000111111111000000111111111100100100000000001110111000000001000011100000000000111001111111110101001 c
b111001010000000000011000111111111000000111111111100100100000000001110111000000001000011100000000000111001111111110101001 g"
b111001010000000000011000111111111000000111111111100100100000000001110111000000001000011100000000000111001111111110101001 $#
b11111111000110111111111111101000000000000111111100000000011011101111111110001001111111110111100111111111111001000000000001010111 )
b11111111000110111111111111101000000000000111111100000000011011101111111110001001111111110111100111111111111001000000000001010111 A
b11111111000110111111111111101000000000000111111100000000011011101111111110001001111111110111100111111111111001000000000001010111 d
b11111111000110111111111111101000000000000111111100000000011011101111111110001001111111110111100111111111111001000000000001010111 h"
b11111111000110111111111111101000000000000111111100000000011011101111111110001001111111110111100111111111111001000000000001010111 ##
b1111111111111111111111111000000 k"
b10 <
b1 9
b1000 (#
13
#18000
03
#19000
b1111111111111000000000000000000 c"
b101100101011010111101 8"
b11111111111010011010100101000011 ?"
b100001101 H"
b100001101110001001001010 G"
b100001101010001001001010 F"
b100001101010001001001010 ="
b111111111101001100000101100110000 6"
b11100000100101110001101 <"
b11111111100011111011010001110011 5"
b11100101 A"
b1111111100011011 @"
b1110011100000111 B"
b11111 I"
b111110110001001 4"
b11111 E"
b1111101110000100 9"
b11111111111111111111101110000100 :"
b1000 C"
b1111111111111000000000000000000 o"
b11 p"
b1111111111111111000000000000000 n"
b1111111111111111000000000000000 d"
b1111111111111000000000000000000 s"
b11 t"
b1111111111111111000000000000000 r"
b11111111010111100101110001001111 G
b101000011010001110110001 N
b1100011111001 Q
b1 X
b111110110001001 C
b1 T
b10100010110 W
b10100010110010100000010000 V
b10100010101110100000010000 U
b10100010101110100000010000 L
b111111100001100011101000010001110 E
b11001011001000101111000001 K
b11111100110100110111010000111111 D
b11001111001 P
b1111100110000111 O
b100110011100 H
b100110011100 I
b1000 R
b111111111111111111101000111001011 ,#
b111111111111111111101000111001011100011011001110 +#
b111111111111111111101000111001011000011011001110 *#
b101000 -#
b0 &#
b0 %#
b101001 )#
b111111111111111111101000111001011000011011001110 "#
b10111000110100111100100110010 !#
b1000 '#
b100 <
b10 9
1,
b111001010000000000011000111111111000000111111111100100100000000001110111000000001000011100000000000111001111111110101001 -
b111001010000000000011000111111111000000111111111100100100000000001110111000000001000011100000000000111001111111110101001 M
b111001010000000000011000111111111000000111111111100100100000000001110111000000001000011100000000000111001111111110101001 Z
b111001010000000000011000111111111000000111111111100100100000000001110111000000001000011100000000000111001111111110101001 j
b111001010000000000011000111111111000000111111111100100100000000001110111000000001000011100000000000111001111111110101001 1"
b11111111000110111111111111101000000000000111111100000000011011101111111110001001111111110111100111111111111001000000000001010111 .
b11111111000110111111111111101000000000000111111100000000011011101111111110001001111111110111100111111111111001000000000001010111 F
b11111111000110111111111111101000000000000111111100000000011011101111111110001001111111110111100111111111111001000000000001010111 Y
b11111111000110111111111111101000000000000111111100000000011011101111111110001001111111110111100111111111111001000000000001010111 i
b11111111000110111111111111101000000000000111111100000000011011101111111110001001111111110111100111111111111001000000000001010111 /"
b10100100000 J
b1111111111111111111000000000000 k"
b110011110010000010100001101000000010010110111111110001000111111110111110000111111101110111100000000001011010000000010111001 (
b110011110010000010100001101000000010010110111111110001000111111110111110000111111101110111100000000001011010000000010111001 ?
b110011110010000010100001101000000010010110111111110001000111111110111110000111111101110111100000000001011010000000010111001 c
b110011110010000010100001101000000010010110111111110001000111111110111110000111111101110111100000000001011010000000010111001 g"
b110011110010000010100001101000000010010110111111110001000111111110111110000111111101110111100000000001011010000000010111001 $#
b11111001100001111111101011110011111111101101001100000001110111010000001000010000000000010001000111111111110100111111111101000111 )
b11111001100001111111101011110011111111101101001100000001110111010000001000010000000000010001000111111111110100111111111101000111 A
b11111001100001111111101011110011111111101101001100000001110111010000001000010000000000010001000111111111110100111111111101000111 d
b11111001100001111111101011110011111111101101001100000001110111010000001000010000000000010001000111111111110100111111111101000111 h"
b11111001100001111111101011110011111111101101001100000001110111010000001000010000000000010001000111111111110100111111111101000111 ##
b1000 S
b1000 (#
13
#20000
03
#21000
b1111111000000000000000000000000 c"
b111111111111111111101001101110110 ,#
b111111111111111111101001101110110101000110000110 +#
b111111111111111111101001101110110001000110000110 *#
b101000 -#
b0 &#
b0 %#
b101001 )#
b111111111111111111101001101110110001000110000110 "#
b10110010001001110111001111010 !#
b1000 '#
b1111111000000000000000000000000 o"
b11 p"
b1111111111000000000000000000000 n"
b1111111111000000000000000000000 d"
b1111111000000000000000000000000 s"
b11 t"
b1111111111000000000000000000000 r"
b100 Y"
b100110001110000001 X"
b100010001110000001 W"
b100010001110000001 O"
b111111111111111111111111111111101000000010011010 N"
b101000 Z"
b0 S"
b0 R"
b101001 V"
b1000 T"
b1100111100000101 B"
b11110 I"
b111011001000001 4"
b11110 E"
b11110011100 H"
b11110011100110010010001010 G"
b11110011100010010010001010 F"
b11110011100010010010001010 ="
b111111101011101010100010111110110 6"
b10010110010110111010010110 <"
b1011101001011010111110100 8"
b11111111000001101110001101101110 ?"
b11111100011111000010100101100100 5"
b10100010110 A"
b1111100001100100 @"
b1111011001100100 9"
b1111011001100100 :"
b1000 C"
b111101101110110011 W
b111101101110110011000111000110000 V
b111101101110110010100111000110000 U
b111101101110110010100111000110000 L
b11011001010101000010011101010 E
b11101001010101110110010010100011 K
b100100000011110100110001101 G
b11111011011111100001011001110011 N
b10110101010001001101101011101 D
b1101000111001011 P
b10111000110101 O
b111010111100 H
b111010111100 I
b1000 R
b11010001110010111100111000001011110011000111111011010000011000101101101100101000111010011000110011110111110011110000000111111000 (
b11010001110010111100111000001011110011000111111011010000011000101101101100101000111010011000110011110111110011110000000111111000 ?
b11010001110010111100111000001011110011000111111011010000011000101101101100101000111010011000110011110111110011110000000111111000 c
b11010001110010111100111000001011110011000111111011010000011000101101101100101000111010011000110011110111110011110000000111111000 g"
b11010001110010111100111000001011110011000111111011010000011000101101101100101000111010011000110011110111110011110000000111111000 $#
b101110001101010011000111110101001100111000001000101111100111100010010011011000000101100111010000001000001100011111111000001000 )
b101110001101010011000111110101001100111000001000101111100111100010010011011000000101100111010000001000001100011111111000001000 A
b101110001101010011000111110101001100111000001000101111100111100010010011011000000101100111010000001000001100011111111000001000 d
b101110001101010011000111110101001100111000001000101111100111100010010011011000000101100111010000001000001100011111111000001000 h"
b101110001101010011000111110101001100111000001000101111100111100010010011011000000101100111010000001000001100011111111000001000 ##
b1111111111111000000000000000000 k"
1w
b1000011010000000000011100111111110110101111111111011111110000000010001100000000001001111100000000001000011111111110101001 *
b1000011010000000000011100111111110110101111111111011111110000000010001100000000001001111100000000001000011111111110101001 e
b1000011010000000000011100111111110110101111111111011111110000000010001100000000001001111100000000001000011111111110101001 u
b1000011010000000000011100111111110110101111111111011111110000000010001100000000001001111100000000001000011111111110101001 >"
b1000011010000000000011100111111110110101111111111011111110000000010001100000000001001111100000000001000011111111110101001 K"
b11111111010011001111111111101101000000000110010000000000010101101111111110100011111111111001011011111111111010100000000001010111 +
b11111111010011001111111111101101000000000110010000000000010101101111111110100011111111111001011011111111111010100000000001010111 f
b11111111010011001111111111101101000000000110010000000000010101101111111110100011111111111001011011111111111010100000000001010111 v
b11111111010011001111111111101101000000000110010000000000010101101111111110100011111111111001011011111111111010100000000001010111 7"
b11111111010011001111111111101101000000000110010000000000010101101111111110100011111111111001011011111111111010100000000001010111 J"
b1111101011100000 ;"
b101000101100000001111111000000000001110110011111110001000111111110111110000111111101110111100000000001011010000000010111001 -
b101000101100000001111111000000000001110110011111110001000111111110111110000111111101110111100000000001011010000000010111001 M
b101000101100000001111111000000000001110110011111110001000111111110111110000111111101110111100000000001011010000000010111001 Z
b101000101100000001111111000000000001110110011111110001000111111110111110000111111101110111100000000001011010000000010111001 j
b101000101100000001111111000000000001110110011111110001000111111110111110000111111101110111100000000001011010000000010111001 1"
b11111000011001001111101000010000111111101001111000000001110111010000001000010000000000010001000111111111110100111111111101000111 .
b11111000011001001111101000010000111111101001111000000001110111010000001000010000000000010001000111111111110100111111111101000111 F
b11111000011001001111101000010000111111101001111000000001110111010000001000010000000000010001000111111111110100111111111101000111 Y
b11111000011001001111101000010000111111101001111000000001110111010000001000010000000000010001000111111111110100111111111101000111 i
b11111000011001001111101000010000111111101001111000000001110111010000001000010000000000010001000111111111110100111111111101000111 /"
b101001000000 J
b110 <
b11 9
b1000 (#
b1000 D"
b1000 S
13
#22000
03
